 # Publications that use results from iPIC3D need to properly cite  
 # 'S. Markidis, G. Lapenta, and Rizwan-uddin. "Multi-scale simulations of 
 # plasma with iPIC3D." Mathematics and Computers in Simulation 80.7 (2010): 1509-1519.'
 #
 #        Copyright 2015 KTH Royal Institute of Technology
 # Licensed under the Apache License, Version 2.0 (the "License");
 # you may not use this file except in compliance with the License.
 # You may obtain a copy of the License at 
 #
 #         http://www.apache.org/licenses/LICENSE-2.0
 #
 # Unless required by applicable law or agreed to in writing, software
 # distributed under the License is distributed on an "AS IS" BASIS,
 # WITHOUT WARRANTIES OR CONDITIONS OF ANY KIND, either express or implied.
 # See the License for the specific language governing permissions and
 # limitations under the License.

# Directories
SaveDirName = data
RestartDirName = data

Case              = Dipole 
PoissonCorrection = no         # Poisson correction
WriteMethod       = pvtk       # Output method [ shdf5 || pvtk ||nbcvtk]
SimulationName    = Dipole3D   # Simulation name for the output

#  Initial Magnetic Field
B0x = 0.0
B0y = 0.0
B0z = 0.0001


# External magnetic field parameters: DIPOLE - Magnetic Moment in Z direction
B1x = 0.0
B1y = 0.0
B1z = 2.0

#  %%%%%%%%%%%%%%%%%%% TIME %%%%%%%%%%%%%%%%%%
dt = 0.15                   # dt = time step  
ncycles = 640		 #!!!    # cycles
th = 1.0                     # th =   decentering parameter
c = 1.0                      # c = light speed 

#  %%%%%%%%%%%%%%%%%%% SMOOTH %%%%%%%%%%%%%%%%%%
Smooth = 0.5                  # Smoothing value (5-points stencil)


# %%%%%%%%%%%%%%%%%% BOX SIZE %%%%%%%%%%%%%%%
Lx =   10.0                  # Lx = simulation box length - x direction   
Ly =   10.0                  # Ly = simulation box length - y direction
Lz =   10.0                  # Lz = simulation box length - z direction   

x_center =   6.0             # center of the dipole - X
y_center =   5.0             # center of the dipole - Y
z_center =   5.0             # center of the dipole - Z  
L_square =   0.5             # radius of the planet
delta    =   0.5             # diameter of the coil to generate the dipole

nxc =  16                  # nxc = number of cells - x direction        
nyc =  16                  # nyc = number of cells - y direction
nzc =  16                   # nzc = number of cells - z direction        

# %%%%%%%%%%%%%% MPI TOPOLOGY %%%%%%%%%%%%%%
# number of MPI subdomains in each direction
XLEN = 2
YLEN = 2
ZLEN = 2
# topology (1=true, 0=false): USE PERIODIC IN ALL DIRECTIONS
PERIODICX = 0
PERIODICY = 0
PERIODICZ = 0

# %%%%%%%%%%%%%% PARTICLES %%%%%%%%%%%%%%%%%
#    ns = number of species
#    0 = electrons
#    1 = protons
#    2,3,4,5,... = ions
ns = 2
# Initial density (make sure you are neutral)
rhoINIT =  1.0	1.0  
# Injection density (make sure you are neutral)
rhoINJECT =  1.0   1.0 
# npcelx = number of particles per cell - Direction X 
npcelx =    8   8
# npcely = number of particles per cell - Direction Y 
npcely =    8   8
# npcelz = number of particles per cell - Direction Z 
npcelz =    8   8


# qom = charge to mass ratio for different species 
qom =  -25.0	1.0	
# uth = thermal velocity for different species - Direction X  
uth  = 0.045      0.0063
# vth = thermal velocity for different species - Direction Y 
vth  = 0.045      0.0063
# wth = thermal velocity for different species - Direction Z 
wth  = 0.045      0.0063


# u0 = drift velocity   - Direction X    
u0 = 0.02	0.02 
# v0 = drift velocity   - Direction Y    
v0 = 0.0	0.0 
# w0 = drift velocity   - Direction Z    
w0 = 0.0	0.0


# &&&&&&&&&&&& boundary conditions &&&&&&&&&&&&&&&
# PHI Electrostatic Potential     
# 0,1 = Dirichilet boundary condition ;     
# 2   = Neumann boundary condition
#    Caveat: if your processor topology is set to be periodic in a direction, automatically the boundary condition in that direction will be periodic
    bcPHIfaceXright = 1
    bcPHIfaceXleft  = 1
    bcPHIfaceYright = 1
    bcPHIfaceYleft  = 1
    bcPHIfaceZright = 1
    bcPHIfaceZleft  = 1
    
#    EM field boundary condition
#    0 = perfect conductor
#    1 = magnetic mirror
#    Caveat: if your processor topology is set to be periodic in a direction, automatically the boundary condition in that direction will be periodic
    bcEMfaceXright = 2
    bcEMfaceXleft =  2
    bcEMfaceYright = 2
    bcEMfaceYleft =  2
    bcEMfaceZright = 2
    bcEMfaceZleft =  2
    
#    Particles Boundary condition
#    0 = exit
#    1 = perfect mirror
#    2 = riemission
#    Caveat: if your processor topology is set to be periodic in a direction, automatically the boundary condition in that direction will be periodic
    bcPfaceXright = 3
    bcPfaceXleft =  2
    bcPfaceYright = 3
    bcPfaceYleft =  3
    bcPfaceZright = 3
    bcPfaceZleft =  3

#  print to video results 
    verbose = 1
# velocity of the injection from the wall
    Vinj= 0.02

# CG solver stopping criterium tolerance
    CGtol = 1E-3
# GMRES solver stopping criterium tolerance
    GMREStol = 1E-3
# mover predictor corrector iteration
    NiterMover = 8
# Output for field
   FieldOutputCycle = 10
   FieldOutputTag   = B+E+Je+Ji
   MomentsOutputTag = rho+PXX+PXY+PXZ+PYY+PYZ+PZZ
# Output for particles if 0 it doesnt save particles data
   ParticlesOutputCycle = 15
   ParticlesOutputTag = position+velocity+q 
# restart cycle
   RestartOutputCycle = 0
   CallFinalize=1
